%YAML 1.1
%TAG !u! tag:unity3d.com,2011:
--- !u!1 &100000
GameObject:
  m_ObjectHideFlags: 0
  m_PrefabParentObject: {fileID: 0}
  m_PrefabInternal: {fileID: 100100000}
  serializedVersion: 5
  m_Component:
  - component: {fileID: 400000}
  - component: {fileID: 3300000}
  - component: {fileID: 2300000}
  - component: {fileID: 6500000}
  - component: {fileID: 13500000}
  - component: {fileID: 5400000}
  - component: {fileID: 11400004}
  - component: {fileID: 114498601316198032}
  m_Layer: 0
  m_Name: Top
  m_TagString: Untagged
  m_Icon: {fileID: 0}
  m_NavMeshLayer: 0
  m_StaticEditorFlags: 0
  m_IsActive: 1
--- !u!1 &100002
GameObject:
  m_ObjectHideFlags: 0
  m_PrefabParentObject: {fileID: 0}
  m_PrefabInternal: {fileID: 100100000}
  serializedVersion: 5
  m_Component:
  - component: {fileID: 400002}
  - component: {fileID: 3300002}
  - component: {fileID: 2300002}
  - component: {fileID: 6500002}
  - component: {fileID: 13500002}
  - component: {fileID: 5400002}
  - component: {fileID: 11400006}
  - component: {fileID: 114777726047843672}
  m_Layer: 0
  m_Name: Bottom
  m_TagString: Untagged
  m_Icon: {fileID: 0}
  m_NavMeshLayer: 0
  m_StaticEditorFlags: 0
  m_IsActive: 1
--- !u!1 &100004
GameObject:
  m_ObjectHideFlags: 0
  m_PrefabParentObject: {fileID: 0}
  m_PrefabInternal: {fileID: 100100000}
  serializedVersion: 5
  m_Component:
  - component: {fileID: 400004}
  m_Layer: 0
  m_Name: Wood Post Long DEST
  m_TagString: Untagged
  m_Icon: {fileID: 0}
  m_NavMeshLayer: 0
  m_StaticEditorFlags: 0
  m_IsActive: 1
--- !u!4 &400000
Transform:
  m_ObjectHideFlags: 1
  m_PrefabParentObject: {fileID: 0}
  m_PrefabInternal: {fileID: 100100000}
  m_GameObject: {fileID: 100000}
  m_LocalRotation: {x: 0, y: -0, z: 0, w: 1}
  m_LocalPosition: {x: 0, y: 1.7136644, z: 0}
  m_LocalScale: {x: 1, y: 1, z: 1}
  m_Children: []
  m_Father: {fileID: 400004}
  m_RootOrder: 1
  m_LocalEulerAnglesHint: {x: 0, y: 0, z: 0}
--- !u!4 &400002
Transform:
  m_ObjectHideFlags: 1
  m_PrefabParentObject: {fileID: 0}
  m_PrefabInternal: {fileID: 100100000}
  m_GameObject: {fileID: 100002}
  m_LocalRotation: {x: 0, y: -0, z: 0, w: 1}
  m_LocalPosition: {x: 0, y: 0.66734374, z: 0}
  m_LocalScale: {x: 1, y: 1, z: 1}
  m_Children: []
  m_Father: {fileID: 400004}
  m_RootOrder: 0
  m_LocalEulerAnglesHint: {x: 0, y: 0, z: 0}
--- !u!4 &400004
Transform:
  m_ObjectHideFlags: 1
  m_PrefabParentObject: {fileID: 0}
  m_PrefabInternal: {fileID: 100100000}
  m_GameObject: {fileID: 100004}
  m_LocalRotation: {x: 0, y: 0, z: 0, w: 1}
  m_LocalPosition: {x: 910.22534, y: 0.36895752, z: 1006.7926}
  m_LocalScale: {x: 1, y: 1, z: 1}
  m_Children:
  - {fileID: 400002}
  - {fileID: 400000}
  m_Father: {fileID: 0}
  m_RootOrder: 0
  m_LocalEulerAnglesHint: {x: 0, y: 0, z: 0}
--- !u!23 &2300000
MeshRenderer:
  m_ObjectHideFlags: 1
  m_PrefabParentObject: {fileID: 0}
  m_PrefabInternal: {fileID: 100100000}
  m_GameObject: {fileID: 100000}
  m_Enabled: 1
  m_CastShadows: 1
  m_ReceiveShadows: 1
  m_MotionVectors: 1
  m_LightProbeUsage: 0
  m_ReflectionProbeUsage: 1
  m_Materials:
  - {fileID: 2100000, guid: d901fe76b2c505343a74d21e2e558c3c, type: 2}
  m_StaticBatchInfo:
    firstSubMesh: 0
    subMeshCount: 0
  m_StaticBatchRoot: {fileID: 0}
  m_ProbeAnchor: {fileID: 0}
  m_LightProbeVolumeOverride: {fileID: 0}
  m_ScaleInLightmap: 1
  m_PreserveUVs: 0
  m_IgnoreNormalsForChartDetection: 0
  m_ImportantGI: 0
  m_SelectedEditorRenderState: 3
  m_MinimumChartSize: 4
  m_AutoUVMaxDistance: 0.5
  m_AutoUVMaxAngle: 89
  m_LightmapParameters: {fileID: 0}
  m_SortingLayerID: 0
  m_SortingLayer: 0
  m_SortingOrder: 0
--- !u!23 &2300002
MeshRenderer:
  m_ObjectHideFlags: 1
  m_PrefabParentObject: {fileID: 0}
  m_PrefabInternal: {fileID: 100100000}
  m_GameObject: {fileID: 100002}
  m_Enabled: 1
  m_CastShadows: 1
  m_ReceiveShadows: 1
  m_MotionVectors: 1
  m_LightProbeUsage: 0
  m_ReflectionProbeUsage: 1
  m_Materials:
  - {fileID: 2100000, guid: d901fe76b2c505343a74d21e2e558c3c, type: 2}
  m_StaticBatchInfo:
    firstSubMesh: 0
    subMeshCount: 0
  m_StaticBatchRoot: {fileID: 0}
  m_ProbeAnchor: {fileID: 0}
  m_LightProbeVolumeOverride: {fileID: 0}
  m_ScaleInLightmap: 1
  m_PreserveUVs: 0
  m_IgnoreNormalsForChartDetection: 0
  m_ImportantGI: 0
  m_SelectedEditorRenderState: 3
  m_MinimumChartSize: 4
  m_AutoUVMaxDistance: 0.5
  m_AutoUVMaxAngle: 89
  m_LightmapParameters: {fileID: 0}
  m_SortingLayerID: 0
  m_SortingLayer: 0
  m_SortingOrder: 0
--- !u!33 &3300000
MeshFilter:
  m_ObjectHideFlags: 1
  m_PrefabParentObject: {fileID: 0}
  m_PrefabInternal: {fileID: 100100000}
  m_GameObject: {fileID: 100000}
  m_Mesh: {fileID: 4300024, guid: 49072c85294b68143900a5d24d7a52ec, type: 3}
--- !u!33 &3300002
MeshFilter:
  m_ObjectHideFlags: 1
  m_PrefabParentObject: {fileID: 0}
  m_PrefabInternal: {fileID: 100100000}
  m_GameObject: {fileID: 100002}
  m_Mesh: {fileID: 4300026, guid: 49072c85294b68143900a5d24d7a52ec, type: 3}
--- !u!54 &5400000
Rigidbody:
  m_ObjectHideFlags: 1
  m_PrefabParentObject: {fileID: 0}
  m_PrefabInternal: {fileID: 100100000}
  m_GameObject: {fileID: 100000}
  serializedVersion: 2
  m_Mass: 1
  m_Drag: 0
  m_AngularDrag: 0.05
  m_UseGravity: 1
  m_IsKinematic: 0
  m_Interpolate: 0
  m_Constraints: 0
  m_CollisionDetection: 0
--- !u!54 &5400002
Rigidbody:
  m_ObjectHideFlags: 1
  m_PrefabParentObject: {fileID: 0}
  m_PrefabInternal: {fileID: 100100000}
  m_GameObject: {fileID: 100002}
  serializedVersion: 2
  m_Mass: 1
  m_Drag: 0
  m_AngularDrag: 0.05
  m_UseGravity: 1
  m_IsKinematic: 0
  m_Interpolate: 0
  m_Constraints: 0
  m_CollisionDetection: 0
--- !u!65 &6500000
BoxCollider:
  m_ObjectHideFlags: 1
  m_PrefabParentObject: {fileID: 0}
  m_PrefabInternal: {fileID: 100100000}
  m_GameObject: {fileID: 100000}
  m_Material: {fileID: 13400000, guid: cdf7d3f1ad11f8d6d00011d98d76c639, type: 2}
  m_IsTrigger: 0
  m_Enabled: 1
  serializedVersion: 2
  m_Size: {x: 0.15, y: 1.01, z: 0.15}
  m_Center: {x: 0, y: 0.08, z: 0}
--- !u!65 &6500002
BoxCollider:
  m_ObjectHideFlags: 1
  m_PrefabParentObject: {fileID: 0}
  m_PrefabInternal: {fileID: 100100000}
  m_GameObject: {fileID: 100002}
  m_Material: {fileID: 13400000, guid: cdf7d3f1ad11f8d6d00011d98d76c639, type: 2}
  m_IsTrigger: 0
  m_Enabled: 1
  serializedVersion: 2
  m_Size: {x: 0.15, y: 1.1, z: 0.15}
  m_Center: {x: 0, y: -0.116, z: 0}
--- !u!114 &11400004
MonoBehaviour:
  m_ObjectHideFlags: 1
  m_PrefabParentObject: {fileID: 0}
  m_PrefabInternal: {fileID: 100100000}
  m_GameObject: {fileID: 100000}
  m_Enabled: 1
  m_EditorHideFlags: 0
  m_Script: {fileID: 11500000, guid: b1bbb502083c41048a8fedc6a9693be7, type: 3}
  m_Name: 
  m_EditorClassIdentifier: 
  totalHitPoints: 35
  currentHitPoints: 35
  damageLevels:
  - maxHitPoints: 35
    minHitPoints: 29
    healthPercent: 100
    hasError: 0
    visibleDamageLevel: 0
  - maxHitPoints: 28
    minHitPoints: 22
    healthPercent: 80
    hasError: 0
    visibleDamageLevel: 2
  - maxHitPoints: 21
    minHitPoints: 15
    healthPercent: 60
    hasError: 0
    visibleDamageLevel: 4
  - maxHitPoints: 14
    minHitPoints: 8
    healthPercent: 40
    hasError: 0
    visibleDamageLevel: 6
  - maxHitPoints: 7
    minHitPoints: 0
    healthPercent: 20
    hasError: 0
    visibleDamageLevel: 8
  destroyedPrefab: {fileID: 0}
  fallbackParticle: {fileID: 19800002, guid: 7a27210e9b7d56942a6acf1af0210d33, type: 2}
  fallbackParticleMaterial: {fileID: 0}
  damageEffects: []
  velocityReduction: 0.5
  ignoreCollisionsUnder: 2
  unparentOnDestroy: []
  replaceMaterials: []
  canBeDestroyed: 1
  canBeRepaired: 1
  canBeObliterated: 1
  debrisToReParentByName: []
  childrenToReParentByName: []
  destructibleGroupId: 0
  isDebrisChipAway: 0
  chipAwayDebrisMass: 1
  chipAwayDebrisDrag: 0
  chipAwayDebrisAngularDrag: 0.05
  tagDebrisColliders: 0
  tagDebrisCollidersWith: 10
  autoPoolDestroyedPrefab: 1
  useFallbackParticle: 1
  sinkWhenDestroyed: 0
--- !u!114 &11400006
MonoBehaviour:
  m_ObjectHideFlags: 1
  m_PrefabParentObject: {fileID: 0}
  m_PrefabInternal: {fileID: 100100000}
  m_GameObject: {fileID: 100002}
  m_Enabled: 1
  m_EditorHideFlags: 0
  m_Script: {fileID: 11500000, guid: b1bbb502083c41048a8fedc6a9693be7, type: 3}
  m_Name: 
  m_EditorClassIdentifier: 
  totalHitPoints: 35
  currentHitPoints: 35
  damageLevels:
  - maxHitPoints: 35
    minHitPoints: 29
    healthPercent: 100
    hasError: 0
    visibleDamageLevel: 0
  - maxHitPoints: 28
    minHitPoints: 22
    healthPercent: 80
    hasError: 0
    visibleDamageLevel: 2
  - maxHitPoints: 21
    minHitPoints: 15
    healthPercent: 60
    hasError: 0
    visibleDamageLevel: 4
  - maxHitPoints: 14
    minHitPoints: 8
    healthPercent: 40
    hasError: 0
    visibleDamageLevel: 6
  - maxHitPoints: 7
    minHitPoints: 0
    healthPercent: 20
    hasError: 0
    visibleDamageLevel: 8
  destroyedPrefab: {fileID: 0}
  fallbackParticle: {fileID: 19800002, guid: 7a27210e9b7d56942a6acf1af0210d33, type: 2}
  fallbackParticleMaterial: {fileID: 0}
  damageEffects: []
  velocityReduction: 0.5
  ignoreCollisionsUnder: 2
  unparentOnDestroy: []
  replaceMaterials: []
  canBeDestroyed: 1
  canBeRepaired: 1
  canBeObliterated: 1
  debrisToReParentByName: []
  childrenToReParentByName: []
  destructibleGroupId: 0
  isDebrisChipAway: 0
  chipAwayDebrisMass: 1
  chipAwayDebrisDrag: 0
  chipAwayDebrisAngularDrag: 0.05
  tagDebrisColliders: 0
  tagDebrisCollidersWith: 10
  autoPoolDestroyedPrefab: 1
  useFallbackParticle: 1
  sinkWhenDestroyed: 0
--- !u!135 &13500000
SphereCollider:
  m_ObjectHideFlags: 1
  m_PrefabParentObject: {fileID: 0}
  m_PrefabInternal: {fileID: 100100000}
  m_GameObject: {fileID: 100000}
  m_Material: {fileID: 13400000, guid: cdf7d3f1ad11f8d6d00011d98d76c639, type: 2}
  m_IsTrigger: 0
  m_Enabled: 1
  serializedVersion: 2
  m_Radius: 0.075
  m_Center: {x: 0, y: -0.42, z: 0}
--- !u!135 &13500002
SphereCollider:
  m_ObjectHideFlags: 1
  m_PrefabParentObject: {fileID: 0}
  m_PrefabInternal: {fileID: 100100000}
  m_GameObject: {fileID: 100002}
  m_Material: {fileID: 13400000, guid: cdf7d3f1ad11f8d6d00011d98d76c639, type: 2}
  m_IsTrigger: 0
  m_Enabled: 1
  serializedVersion: 2
  m_Radius: 0.075
  m_Center: {x: 0, y: 0.47, z: 0}
--- !u!1001 &100100000
Prefab:
  m_ObjectHideFlags: 1
  serializedVersion: 2
  m_Modification:
    m_TransformParent: {fileID: 0}
    m_Modifications: []
    m_RemovedComponents: []
  m_ParentPrefab: {fileID: 0}
  m_RootGameObject: {fileID: 100004}
  m_IsPrefabParent: 1
--- !u!114 &114498601316198032
MonoBehaviour:
  m_ObjectHideFlags: 1
  m_PrefabParentObject: {fileID: 0}
  m_PrefabInternal: {fileID: 100100000}
  m_GameObject: {fileID: 100000}
  m_Enabled: 1
  m_EditorHideFlags: 0
  m_Script: {fileID: 11500000, guid: 9ae5a7a1942384f45a292ce82d781740, type: 3}
  m_Name: 
  m_EditorClassIdentifier: 
  effects:
  - hitBy: -1
    effect: {fileID: 100000, guid: 1b41b6695dc30774397dbd871dc82cfa, type: 2}
--- !u!114 &114777726047843672
MonoBehaviour:
  m_ObjectHideFlags: 1
  m_PrefabParentObject: {fileID: 0}
  m_PrefabInternal: {fileID: 100100000}
  m_GameObject: {fileID: 100002}
  m_Enabled: 1
  m_EditorHideFlags: 0
  m_Script: {fileID: 11500000, guid: 9ae5a7a1942384f45a292ce82d781740, type: 3}
  m_Name: 
  m_EditorClassIdentifier: 
  effects:
  - hitBy: -1
    effect: {fileID: 100000, guid: 1b41b6695dc30774397dbd871dc82cfa, type: 2}
