# MagicaVoxel @ Ephtracy

# group
g head_8x8

# material
mtllib head_8x8.mtl
usemtl palette

# normals
vn -1 0 0
vn 1 0 0
vn 0 0 1
vn 0 0 -1
vn 0 -1 0
vn 0 1 0

# texcoords
vt 0.0332031 0.5
vt 0.0605469 0.5
vt 0.396484 0.5
vt 0.470703 0.5
vt 0.958984 0.5

# verts
v -7 2 -4
v -7 2 -7
v -7 4 -2
v -7 4 -4
v -7 6 -0
v -7 6 -2
v -7 8 3
v -7 8 -0
v -7 11 7
v -7 11 3
v -7 15 7
v -7 15 -7
v -6 0 6
v -6 0 -6
v -6 2 -4
v -6 2 -6
v -6 4 -2
v -6 4 -4
v -6 6 -0
v -6 6 -2
v -6 8 3
v -6 8 -0
v -6 11 6
v -6 11 3
v 2 11 7
v 2 11 6
v 2 12 7
v 2 12 6
v -2 11 7
v -2 11 6
v -2 12 7
v -2 12 6
v 6 0 6
v 6 0 -6
v 6 2 -4
v 6 2 -6
v 6 4 -2
v 6 4 -4
v 6 6 -0
v 6 6 -2
v 6 8 3
v 6 8 -0
v 6 11 6
v 6 11 3
v 7 2 -4
v 7 2 -7
v 7 4 -2
v 7 4 -4
v 7 6 -0
v 7 6 -2
v 7 8 3
v 7 8 -0
v 7 11 7
v 7 11 3
v 7 15 7
v 7 15 -7
v -7 11 7
v -7 15 7
v -2 11 7
v -2 12 7
v 2 11 7
v 2 12 7
v 7 11 7
v 7 15 7
v -6 0 6
v -6 11 6
v -5 6 6
v -5 10 6
v -4 2 6
v -4 3 6
v -3 1 6
v -3 2 6
v -3 6 6
v -3 8 6
v -2 2 6
v -2 3 6
v -2 11 6
v -2 12 6
v -1 4 6
v -1 6 6
v -1 8 6
v -1 10 6
v 1 4 6
v 1 6 6
v 1 8 6
v 1 10 6
v 2 2 6
v 2 3 6
v 2 11 6
v 2 12 6
v 3 1 6
v 3 2 6
v 3 6 6
v 3 8 6
v 4 2 6
v 4 3 6
v 5 6 6
v 5 10 6
v 6 0 6
v 6 11 6
v -7 8 3
v -7 11 3
v -6 8 3
v -6 11 3
v 6 8 3
v 6 11 3
v 7 8 3
v 7 11 3
v -7 6 -0
v -7 8 -0
v -6 6 -0
v -6 8 -0
v 6 6 -0
v 6 8 -0
v 7 6 -0
v 7 8 -0
v -7 4 -2
v -7 6 -2
v -6 4 -2
v -6 6 -2
v 6 4 -2
v 6 6 -2
v 7 4 -2
v 7 6 -2
v -7 2 -4
v -7 4 -4
v -6 2 -4
v -6 4 -4
v 6 2 -4
v 6 4 -4
v 7 2 -4
v 7 4 -4
v -6 0 -6
v -6 2 -6
v 6 0 -6
v 6 2 -6
v -7 2 -7
v -7 15 -7
v 7 2 -7
v 7 15 -7
v -6 0 6
v 6 0 6
v -6 0 -6
v 6 0 -6
v -7 2 -4
v -6 2 -4
v 6 2 -4
v 7 2 -4
v -6 2 -6
v 6 2 -6
v -7 2 -7
v 7 2 -7
v -7 4 -2
v -6 4 -2
v 6 4 -2
v 7 4 -2
v -7 4 -4
v -6 4 -4
v 6 4 -4
v 7 4 -4
v -7 6 -0
v -6 6 -0
v 6 6 -0
v 7 6 -0
v -7 6 -2
v -6 6 -2
v 6 6 -2
v 7 6 -2
v -7 8 3
v -6 8 3
v 6 8 3
v 7 8 3
v -7 8 -0
v -6 8 -0
v 6 8 -0
v 7 8 -0
v -7 11 7
v -2 11 7
v 2 11 7
v 7 11 7
v -6 11 6
v -2 11 6
v 2 11 6
v 6 11 6
v -7 11 3
v -6 11 3
v 6 11 3
v 7 11 3
v -2 12 7
v 2 12 7
v -2 12 6
v 2 12 6
v -7 15 7
v 7 15 7
v -7 15 -7
v 7 15 -7

# faces
f 4/3/1 2/3/1 1/3/1
f 6/3/1 4/3/1 3/3/1
f 8/3/1 6/3/1 5/3/1
f 10/3/1 8/3/1 7/3/1
f 11/3/1 10/3/1 9/3/1
f 12/3/1 2/3/1 4/3/1
f 12/3/1 10/3/1 11/3/1
f 12/3/1 4/3/1 6/3/1
f 12/3/1 8/3/1 10/3/1
f 12/3/1 6/3/1 8/3/1
f 15/1/1 14/1/1 13/1/1
f 16/1/1 14/1/1 15/1/1
f 17/1/1 15/1/1 13/1/1
f 18/1/1 15/1/1 17/1/1
f 19/1/1 17/1/1 13/1/1
f 20/1/1 17/1/1 19/1/1
f 21/1/1 19/1/1 13/1/1
f 22/1/1 19/1/1 21/1/1
f 23/1/1 21/1/1 13/1/1
f 24/1/1 21/1/1 23/1/1
f 27/3/1 26/3/1 25/3/1
f 28/3/1 26/3/1 27/3/1
f 29/3/2 30/3/2 31/3/2
f 31/3/2 30/3/2 32/3/2
f 33/1/2 34/1/2 35/1/2
f 35/1/2 34/1/2 36/1/2
f 33/1/2 35/1/2 37/1/2
f 37/1/2 35/1/2 38/1/2
f 33/1/2 37/1/2 39/1/2
f 39/1/2 37/1/2 40/1/2
f 33/1/2 39/1/2 41/1/2
f 41/1/2 39/1/2 42/1/2
f 33/1/2 41/1/2 43/1/2
f 43/1/2 41/1/2 44/1/2
f 45/3/2 46/3/2 48/3/2
f 47/3/2 48/3/2 50/3/2
f 49/3/2 50/3/2 52/3/2
f 51/3/2 52/3/2 54/3/2
f 53/3/2 54/3/2 55/3/2
f 48/3/2 46/3/2 56/3/2
f 55/3/2 54/3/2 56/3/2
f 50/3/2 48/3/2 56/3/2
f 54/3/2 52/3/2 56/3/2
f 52/3/2 50/3/2 56/3/2
f 59/3/3 58/3/3 57/3/3
f 60/3/3 58/3/3 59/3/3
f 62/3/3 58/3/3 60/3/3
f 63/3/3 62/3/3 61/3/3
f 64/3/3 58/3/3 62/3/3
f 64/3/3 62/3/3 63/3/3
f 67/1/3 66/1/3 65/1/3
f 68/1/3 66/1/3 67/1/3
f 69/1/3 67/1/3 65/1/3
f 70/1/3 67/1/3 69/1/3
f 71/1/3 69/1/3 65/1/3
f 72/3/3 70/3/3 69/3/3
f 72/1/3 69/1/3 71/1/3
f 73/5/3 68/5/3 67/5/3
f 73/1/3 67/1/3 70/1/3
f 74/5/3 68/5/3 73/5/3
f 75/3/3 70/3/3 72/3/3
f 75/3/3 72/3/3 71/3/3
f 76/1/3 73/1/3 70/1/3
f 76/3/3 70/3/3 75/3/3
f 77/1/3 66/1/3 68/1/3
f 79/1/3 73/1/3 76/1/3
f 79/1/3 76/1/3 75/1/3
f 80/4/3 74/4/3 73/4/3
f 80/1/3 73/1/3 79/1/3
f 81/5/3 68/5/3 74/5/3
f 81/4/3 74/4/3 80/4/3
f 82/1/3 78/1/3 77/1/3
f 82/5/3 68/5/3 81/5/3
f 82/1/3 77/1/3 68/1/3
f 83/2/3 80/2/3 79/2/3
f 83/1/3 79/1/3 75/1/3
f 84/1/3 81/1/3 80/1/3
f 84/2/3 80/2/3 83/2/3
f 84/1/3 82/1/3 81/1/3
f 85/1/3 82/1/3 84/1/3
f 86/1/3 78/1/3 82/1/3
f 86/1/3 82/1/3 85/1/3
f 87/1/3 83/1/3 75/1/3
f 87/3/3 75/3/3 71/3/3
f 87/1/3 84/1/3 83/1/3
f 88/1/3 84/1/3 87/1/3
f 89/1/3 78/1/3 86/1/3
f 90/1/3 78/1/3 89/1/3
f 91/1/3 71/1/3 65/1/3
f 91/3/3 87/3/3 71/3/3
f 91/3/3 88/3/3 87/3/3
f 92/3/3 88/3/3 91/3/3
f 93/1/3 84/1/3 88/1/3
f 93/4/3 85/4/3 84/4/3
f 94/5/3 86/5/3 85/5/3
f 94/4/3 85/4/3 93/4/3
f 95/3/3 88/3/3 92/3/3
f 95/1/3 92/1/3 91/1/3
f 96/1/3 93/1/3 88/1/3
f 96/3/3 88/3/3 95/3/3
f 97/5/3 94/5/3 93/5/3
f 97/1/3 93/1/3 96/1/3
f 97/1/3 96/1/3 95/1/3
f 98/5/3 86/5/3 94/5/3
f 98/5/3 94/5/3 97/5/3
f 98/1/3 89/1/3 86/1/3
f 99/1/3 97/1/3 95/1/3
f 99/1/3 91/1/3 65/1/3
f 99/1/3 98/1/3 97/1/3
f 99/1/3 95/1/3 91/1/3
f 100/1/3 89/1/3 98/1/3
f 100/1/3 98/1/3 99/1/3
f 103/3/3 102/3/3 101/3/3
f 104/3/3 102/3/3 103/3/3
f 107/3/3 106/3/3 105/3/3
f 108/3/3 106/3/3 107/3/3
f 111/3/3 110/3/3 109/3/3
f 112/3/3 110/3/3 111/3/3
f 115/3/3 114/3/3 113/3/3
f 116/3/3 114/3/3 115/3/3
f 119/3/3 118/3/3 117/3/3
f 120/3/3 118/3/3 119/3/3
f 123/3/3 122/3/3 121/3/3
f 124/3/3 122/3/3 123/3/3
f 127/3/3 126/3/3 125/3/3
f 128/3/3 126/3/3 127/3/3
f 131/3/3 130/3/3 129/3/3
f 132/3/3 130/3/3 131/3/3
f 133/1/4 134/1/4 135/1/4
f 135/1/4 134/1/4 136/1/4
f 137/3/4 138/3/4 139/3/4
f 139/3/4 138/3/4 140/3/4
f 143/1/5 142/1/5 141/1/5
f 144/1/5 142/1/5 143/1/5
f 149/3/5 146/3/5 145/3/5
f 150/3/5 148/3/5 147/3/5
f 151/3/5 149/3/5 145/3/5
f 151/3/5 150/3/5 149/3/5
f 152/3/5 148/3/5 150/3/5
f 152/3/5 150/3/5 151/3/5
f 157/3/5 154/3/5 153/3/5
f 158/3/5 154/3/5 157/3/5
f 159/3/5 156/3/5 155/3/5
f 160/3/5 156/3/5 159/3/5
f 165/3/5 162/3/5 161/3/5
f 166/3/5 162/3/5 165/3/5
f 167/3/5 164/3/5 163/3/5
f 168/3/5 164/3/5 167/3/5
f 173/3/5 170/3/5 169/3/5
f 174/3/5 170/3/5 173/3/5
f 175/3/5 172/3/5 171/3/5
f 176/3/5 172/3/5 175/3/5
f 181/3/5 178/3/5 177/3/5
f 182/3/5 178/3/5 181/3/5
f 183/3/5 180/3/5 179/3/5
f 184/3/5 180/3/5 183/3/5
f 185/3/5 181/3/5 177/3/5
f 186/3/5 181/3/5 185/3/5
f 187/3/5 180/3/5 184/3/5
f 188/3/5 180/3/5 187/3/5
f 191/3/5 190/3/5 189/3/5
f 192/3/5 190/3/5 191/3/5
f 193/3/6 194/3/6 195/3/6
f 195/3/6 194/3/6 196/3/6
