# MagicaVoxel @ Ephtracy

# group
g half_8x8_skelet

# material
mtllib half_8x8_skelet.mtl
usemtl palette

# normals
vn -1 0 0
vn 1 0 0
vn 0 0 1
vn 0 0 -1
vn 0 -1 0
vn 0 1 0

# texcoords
vt 0.0332031 0.5
vt 0.0605469 0.5
vt 0.396484 0.5
vt 0.470703 0.5
vt 0.900391 0.5
vt 0.958984 0.5
vt 0.966797 0.5

# verts
v -14 22 7
v -14 22 3
v -14 25 7
v -14 25 3
v -14 27 6
v -14 27 4
v -14 28 6
v -14 28 4
v -14 34 6
v -14 34 4
v -14 36 6
v -14 36 4
v -13 25 6
v -13 25 4
v -13 27 6
v -13 27 4
v -13 28 6
v -13 28 4
v -13 34 6
v -13 34 4
v -13 36 6
v -13 36 4
v -13 45 6
v -13 45 4
v -9 43 4
v -9 43 3
v -9 45 4
v -9 45 3
v -6 0 10
v -6 0 8
v -6 1 10
v -6 1 8
v -6 3 6
v -6 3 4
v -6 4 6
v -6 4 4
v -6 9 6
v -6 9 4
v -6 11 6
v -6 11 4
v -6 24 5
v -6 24 3
v -6 26 5
v -6 26 4
v -6 27 4
v -6 27 3
v -6 32 7
v -6 32 3
v -6 34 7
v -6 34 3
v -6 35 7
v -6 35 3
v -6 37 7
v -6 37 3
v -6 38 7
v -6 38 3
v -6 40 7
v -6 40 3
v -6 41 7
v -6 41 3
v -6 43 7
v -6 43 5
v -6 43 3
v -6 44 7
v -6 44 5
v -6 45 5
v -6 45 3
v -6 46 7
v -6 46 3
v -5 0 6
v -5 0 4
v -5 1 8
v -5 1 6
v -5 2 8
v -5 2 6
v -5 3 6
v -5 3 4
v -5 4 6
v -5 4 4
v -5 9 6
v -5 9 4
v -5 11 6
v -5 11 4
v -5 22 6
v -5 22 4
v -5 24 6
v -5 24 5
v -5 25 6
v -5 25 5
v -5 53 10
v -5 53 -0
v -5 60 10
v -5 60 -0
v -4 22 6
v -4 22 4
v -4 23 4
v -4 23 3
v -4 24 6
v -4 24 3
v -4 49 10
v -4 49 6
v -4 51 6
v -4 51 5
v -4 53 10
v -4 53 5
v -3 22 7
v -3 22 6
v -3 22 4
v -3 22 3
v -3 23 7
v -3 23 6
v -3 23 4
v -3 23 3
v -3 52 5
v -3 52 -0
v -3 53 5
v -3 53 -0
v -1 23 5
v -1 23 4
v -1 26 4
v -1 26 3
v -1 32 4
v -1 32 3
v -1 34 4
v -1 34 3
v -1 35 4
v -1 35 3
v -1 37 4
v -1 37 3
v -1 38 4
v -1 38 3
v -1 40 4
v -1 40 3
v -1 41 4
v -1 41 3
v -1 43 4
v -1 43 3
v -1 44 4
v -1 44 3
v -1 46 4
v -1 46 3
v -1 52 5
v -1 52 3
v -1 54 10
v -1 54 9
v -1 57 10
v -1 57 9
v 0 20 8
v 0 20 7
v 0 20 2
v 0 22 7
v 0 22 3
v 0 23 7
v 0 23 5
v 0 24 8
v 0 24 7
v 0 28 8
v 0 28 7
v 0 30 8
v 0 30 7
v 0 32 7
v 0 32 6
v 0 34 7
v 0 34 6
v 0 35 7
v 0 35 6
v 0 37 7
v 0 37 6
v 0 38 7
v 0 38 6
v 0 40 7
v 0 40 6
v 0 41 7
v 0 41 6
v 0 43 7
v 0 43 6
v 0 44 7
v 0 44 6
v 0 46 7
v 0 46 6
v 0 48 11
v 0 48 8
v 0 48 2
v 0 48 -1
v 0 49 11
v 0 49 10
v 0 49 6
v 0 50 11
v 0 50 10
v 0 50 9
v 0 50 6
v 0 50 -0
v 0 50 -1
v 0 50 -2
v 0 52 11
v 0 52 10
v 0 52 9
v 0 52 3
v 0 52 -0
v 0 53 5
v 0 53 1
v 0 54 11
v 0 54 10
v 0 54 9
v 0 59 9
v 0 59 1
v 0 60 12
v 0 60 11
v 0 60 10
v 0 60 -0
v 0 61 10
v 0 61 -0
v 0 63 12
v 0 63 -2
v 1 0 11
v 1 0 2
v 1 3 11
v 1 3 8
v 1 20 8
v 1 20 7
v 1 20 2
v 2 59 12
v 2 59 11
v 2 60 12
v 2 60 11
v 9 22 8
v 9 22 2
v 9 41 8
v 9 41 2
v -11 25 6
v -11 25 4
v -11 27 6
v -11 27 4
v -11 28 6
v -11 28 4
v -11 34 6
v -11 34 4
v -11 36 6
v -11 36 4
v -11 43 6
v -11 43 4
v -10 22 7
v -10 22 3
v -10 25 7
v -10 25 3
v -10 27 6
v -10 27 4
v -10 28 6
v -10 28 4
v -10 34 6
v -10 34 4
v -10 36 6
v -10 36 4
v -9 43 6
v -9 43 5
v -9 45 6
v -9 45 5
v -6 43 5
v -6 43 3
v -6 44 5
v -6 44 3
v -5 25 5
v -5 25 4
v -5 26 5
v -5 26 4
v -5 32 6
v -5 32 4
v -5 34 6
v -5 34 4
v -5 35 6
v -5 35 4
v -5 37 6
v -5 37 4
v -5 38 6
v -5 38 4
v -5 40 6
v -5 40 4
v -5 41 6
v -5 41 4
v -5 43 6
v -5 43 4
v -5 44 6
v -5 44 4
v -5 46 6
v -5 46 4
v -4 24 6
v -4 24 4
v -4 25 6
v -4 25 4
v -4 26 4
v -4 26 3
v -4 27 4
v -4 27 3
v -4 53 9
v -4 53 5
v -4 54 10
v -4 54 9
v -4 54 5
v -4 54 1
v -4 57 10
v -4 57 9
v -4 59 9
v -4 59 1
v -3 0 6
v -3 0 4
v -3 1 8
v -3 1 6
v -3 2 8
v -3 2 6
v -3 3 6
v -3 3 4
v -3 4 6
v -3 4 4
v -3 9 6
v -3 9 4
v -3 11 6
v -3 11 4
v -3 22 6
v -3 22 4
v -3 23 6
v -3 23 4
v -3 24 6
v -3 24 4
v -3 50 9
v -3 50 6
v -3 51 6
v -3 51 5
v -3 52 5
v -3 53 9
v -3 53 5
v -3 53 1
v -3 54 5
v -3 54 1
v -2 0 10
v -2 0 8
v -2 1 10
v -2 1 8
v -2 3 6
v -2 3 4
v -2 4 6
v -2 4 4
v -2 9 6
v -2 9 4
v -2 11 6
v -2 11 4
v -1 52 10
v -1 52 9
v -1 54 10
v -1 54 9
v 3 47 8
v 3 47 2
v 3 48 8
v 3 48 2
v 6 48 11
v 6 48 -1
v 6 50 1
v 6 50 -1
v 6 52 3
v 6 52 1
v 6 54 5
v 6 54 3
v 6 56 8
v 6 56 5
v 6 59 11
v 6 59 8
v 7 0 11
v 7 0 2
v 7 3 11
v 7 3 8
v 7 41 8
v 7 41 2
v 7 50 1
v 7 50 -2
v 7 52 3
v 7 52 1
v 7 54 5
v 7 54 3
v 7 56 8
v 7 56 5
v 7 59 12
v 7 59 8
v 7 63 12
v 7 63 -2
v 15 22 8
v 15 22 2
v 15 47 8
v 15 47 2
v 0 60 12
v 0 63 12
v 2 59 12
v 2 60 12
v 7 59 12
v 7 63 12
v 0 48 11
v 0 49 11
v 0 50 11
v 0 52 11
v 0 54 11
v 0 60 11
v 1 0 11
v 1 3 11
v 1 52 11
v 1 54 11
v 1 56 11
v 1 58 11
v 2 50 11
v 2 51 11
v 2 59 11
v 2 60 11
v 3 49 11
v 3 50 11
v 3 54 11
v 3 56 11
v 4 50 11
v 4 51 11
v 5 54 11
v 5 58 11
v 6 48 11
v 6 59 11
v 7 0 11
v 7 3 11
v -6 0 10
v -6 1 10
v -5 53 10
v -5 60 10
v -4 49 10
v -4 53 10
v -4 54 10
v -4 57 10
v -2 0 10
v -2 1 10
v -1 52 10
v -1 54 10
v -1 57 10
v 0 49 10
v 0 50 10
v 0 52 10
v 0 54 10
v 0 60 10
v -5 1 8
v -5 2 8
v -3 1 8
v -3 2 8
v 0 20 8
v 0 24 8
v 0 28 8
v 0 30 8
v 0 48 8
v 1 3 8
v 1 20 8
v 1 23 8
v 1 24 8
v 1 25 8
v 1 28 8
v 1 30 8
v 2 20 8
v 2 21 8
v 2 22 8
v 2 23 8
v 2 24 8
v 2 25 8
v 3 21 8
v 3 22 8
v 3 38 8
v 3 39 8
v 3 47 8
v 3 48 8
v 4 38 8
v 4 39 8
v 6 56 8
v 6 59 8
v 7 3 8
v 7 41 8
v 7 56 8
v 7 59 8
v 9 22 8
v 9 41 8
v 15 22 8
v 15 47 8
v -14 22 7
v -14 25 7
v -10 22 7
v -10 25 7
v -6 32 7
v -6 34 7
v -6 35 7
v -6 37 7
v -6 38 7
v -6 40 7
v -6 41 7
v -6 43 7
v -6 44 7
v -6 46 7
v -3 22 7
v -3 23 7
v 0 22 7
v 0 23 7
v 0 32 7
v 0 34 7
v 0 35 7
v 0 37 7
v 0 38 7
v 0 40 7
v 0 41 7
v 0 43 7
v 0 44 7
v 0 46 7
v -14 27 6
v -14 28 6
v -14 34 6
v -14 36 6
v -13 25 6
v -13 27 6
v -13 28 6
v -13 34 6
v -13 36 6
v -13 45 6
v -11 25 6
v -11 27 6
v -11 28 6
v -11 34 6
v -11 36 6
v -11 43 6
v -10 27 6
v -10 28 6
v -10 34 6
v -10 36 6
v -9 43 6
v -9 45 6
v -6 3 6
v -6 4 6
v -6 9 6
v -6 11 6
v -5 0 6
v -5 1 6
v -5 2 6
v -5 3 6
v -5 4 6
v -5 9 6
v -5 11 6
v -5 22 6
v -5 24 6
v -5 25 6
v -4 22 6
v -4 24 6
v -4 25 6
v -3 0 6
v -3 1 6
v -3 2 6
v -3 3 6
v -3 4 6
v -3 9 6
v -3 11 6
v -3 22 6
v -3 23 6
v -3 24 6
v -2 3 6
v -2 4 6
v -2 9 6
v -2 11 6
v -9 43 5
v -9 45 5
v -6 24 5
v -6 26 5
v -6 43 5
v -6 44 5
v -6 45 5
v -5 24 5
v -5 25 5
v -5 26 5
v -4 53 5
v -4 54 5
v -3 52 5
v -3 53 5
v -3 54 5
v -1 23 5
v -1 52 5
v 0 23 5
v 0 53 5
v 6 54 5
v 6 56 5
v 7 54 5
v 7 56 5
v -6 26 4
v -6 27 4
v -5 25 4
v -5 26 4
v -5 32 4
v -5 34 4
v -5 35 4
v -5 37 4
v -5 38 4
v -5 40 4
v -5 41 4
v -5 43 4
v -5 44 4
v -5 46 4
v -4 24 4
v -4 25 4
v -4 26 4
v -4 27 4
v -3 23 4
v -3 24 4
v -1 23 4
v -1 26 4
v -1 32 4
v -1 34 4
v -1 35 4
v -1 37 4
v -1 38 4
v -1 40 4
v -1 41 4
v -1 43 4
v -1 44 4
v -1 46 4
v 6 52 3
v 6 54 3
v 7 52 3
v 7 54 3
v -4 54 1
v -4 59 1
v -3 53 1
v -3 54 1
v 0 53 1
v 0 59 1
v 6 50 1
v 6 52 1
v 7 50 1
v 7 52 1
v -4 53 9
v -4 54 9
v -4 57 9
v -4 59 9
v -3 50 9
v -3 53 9
v -1 52 9
v -1 54 9
v -1 57 9
v 0 50 9
v 0 52 9
v 0 54 9
v 0 59 9
v -6 0 8
v -6 1 8
v -5 1 8
v -3 1 8
v -2 0 8
v -2 1 8
v -5 32 6
v -5 34 6
v -5 35 6
v -5 37 6
v -5 38 6
v -5 40 6
v -5 41 6
v -5 43 6
v -5 44 6
v -5 46 6
v -4 49 6
v -4 51 6
v -3 50 6
v -3 51 6
v 0 32 6
v 0 34 6
v 0 35 6
v 0 37 6
v 0 38 6
v 0 40 6
v 0 41 6
v 0 43 6
v 0 44 6
v 0 46 6
v 0 49 6
v 0 50 6
v -4 51 5
v -4 53 5
v -3 51 5
v -3 52 5
v -3 53 5
v -14 27 4
v -14 28 4
v -14 34 4
v -14 36 4
v -13 25 4
v -13 27 4
v -13 28 4
v -13 34 4
v -13 36 4
v -13 45 4
v -11 25 4
v -11 27 4
v -11 28 4
v -11 34 4
v -11 36 4
v -11 43 4
v -10 27 4
v -10 28 4
v -10 34 4
v -10 36 4
v -9 43 4
v -9 45 4
v -6 3 4
v -6 4 4
v -6 9 4
v -6 11 4
v -5 0 4
v -5 3 4
v -5 4 4
v -5 9 4
v -5 11 4
v -5 22 4
v -4 22 4
v -4 23 4
v -3 0 4
v -3 3 4
v -3 4 4
v -3 9 4
v -3 11 4
v -3 22 4
v -3 23 4
v -2 3 4
v -2 4 4
v -2 9 4
v -2 11 4
v -14 22 3
v -14 25 3
v -10 22 3
v -10 25 3
v -9 43 3
v -9 45 3
v -6 24 3
v -6 27 3
v -6 32 3
v -6 34 3
v -6 35 3
v -6 37 3
v -6 38 3
v -6 40 3
v -6 41 3
v -6 43 3
v -6 44 3
v -6 45 3
v -6 46 3
v -4 23 3
v -4 24 3
v -4 26 3
v -4 27 3
v -3 22 3
v -3 23 3
v -1 26 3
v -1 32 3
v -1 34 3
v -1 35 3
v -1 37 3
v -1 38 3
v -1 40 3
v -1 41 3
v -1 43 3
v -1 44 3
v -1 46 3
v -1 52 3
v 0 22 3
v 0 52 3
v 0 20 2
v 0 48 2
v 1 0 2
v 1 20 2
v 3 47 2
v 3 48 2
v 7 0 2
v 7 41 2
v 9 22 2
v 9 41 2
v 15 22 2
v 15 47 2
v -5 53 -0
v -5 60 -0
v -3 52 -0
v -3 53 -0
v 0 52 -0
v 0 60 -0
v 0 48 -1
v 0 50 -1
v 6 48 -1
v 6 50 -1
v 0 50 -2
v 0 63 -2
v 7 50 -2
v 7 63 -2
v 1 0 11
v 7 0 11
v -6 0 10
v -2 0 10
v -6 0 8
v -2 0 8
v -5 0 6
v -3 0 6
v -5 0 4
v -3 0 4
v 1 0 2
v 7 0 2
v -5 1 8
v -3 1 8
v -5 1 6
v -3 1 6
v -6 3 6
v -5 3 6
v -3 3 6
v -2 3 6
v -6 3 4
v -5 3 4
v -3 3 4
v -2 3 4
v -6 9 6
v -5 9 6
v -3 9 6
v -2 9 6
v -6 9 4
v -5 9 4
v -3 9 4
v -2 9 4
v 0 20 8
v 1 20 8
v 0 20 7
v 1 20 7
v 0 20 2
v 1 20 2
v 9 22 8
v 15 22 8
v -14 22 7
v -10 22 7
v -3 22 7
v 0 22 7
v -3 22 6
v -3 22 4
v -14 22 3
v -10 22 3
v -3 22 3
v 0 22 3
v 9 22 2
v 15 22 2
v -4 23 4
v -3 23 4
v -4 23 3
v -3 23 3
v -5 24 6
v -4 24 6
v -6 24 5
v -5 24 5
v -6 24 3
v -4 24 3
v -14 27 6
v -13 27 6
v -11 27 6
v -10 27 6
v -14 27 4
v -13 27 4
v -11 27 4
v -10 27 4
v -6 32 7
v 0 32 7
v -5 32 6
v 0 32 6
v -5 32 4
v -1 32 4
v -6 32 3
v -1 32 3
v -14 34 6
v -13 34 6
v -11 34 6
v -10 34 6
v -14 34 4
v -13 34 4
v -11 34 4
v -10 34 4
v -6 35 7
v 0 35 7
v -5 35 6
v 0 35 6
v -5 35 4
v -1 35 4
v -6 35 3
v -1 35 3
v -6 38 7
v 0 38 7
v -5 38 6
v 0 38 6
v -5 38 4
v -1 38 4
v -6 38 3
v -1 38 3
v 7 41 8
v 9 41 8
v -6 41 7
v 0 41 7
v -5 41 6
v 0 41 6
v -5 41 4
v -1 41 4
v -6 41 3
v -1 41 3
v 7 41 2
v 9 41 2
v -11 43 6
v -9 43 6
v -9 43 5
v -6 43 5
v -11 43 4
v -9 43 4
v -9 43 3
v -6 43 3
v -6 44 7
v 0 44 7
v -5 44 6
v 0 44 6
v -6 44 5
v -5 44 4
v -1 44 4
v -6 44 3
v -1 44 3
v 0 48 11
v 6 48 11
v 0 48 8
v 3 48 8
v 0 48 2
v 3 48 2
v 0 48 -1
v 6 48 -1
v -4 49 10
v 0 49 10
v -4 49 6
v 0 49 6
v 6 50 1
v 7 50 1
v 0 50 -1
v 6 50 -1
v 0 50 -2
v 7 50 -2
v -4 51 6
v -3 51 6
v -4 51 5
v -3 51 5
v -3 52 5
v -1 52 5
v -1 52 3
v 0 52 3
v 6 52 3
v 7 52 3
v 6 52 1
v 7 52 1
v -3 52 -0
v 0 52 -0
v -5 53 10
v -4 53 10
v -4 53 5
v -3 53 5
v -5 53 -0
v -3 53 -0
v -1 54 10
v 0 54 10
v -1 54 9
v 0 54 9
v 6 54 5
v 7 54 5
v 6 54 3
v 7 54 3
v 6 56 8
v 7 56 8
v 6 56 5
v 7 56 5
v -4 57 10
v -1 57 10
v -4 57 9
v -1 57 9
v 2 59 12
v 7 59 12
v 2 59 11
v 6 59 11
v -4 59 9
v 0 59 9
v 6 59 8
v 7 59 8
v -4 59 1
v 0 59 1
v 0 60 12
v 2 60 12
v 0 60 11
v 2 60 11
v -6 1 10
v -2 1 10
v -6 1 8
v -5 1 8
v -3 1 8
v -2 1 8
v -5 2 8
v -3 2 8
v -5 2 6
v -3 2 6
v 1 3 11
v 7 3 11
v 1 3 8
v 7 3 8
v -6 4 6
v -5 4 6
v -3 4 6
v -2 4 6
v -6 4 4
v -5 4 4
v -3 4 4
v -2 4 4
v -6 11 6
v -5 11 6
v -3 11 6
v -2 11 6
v -6 11 4
v -5 11 4
v -3 11 4
v -2 11 4
v -5 22 6
v -4 22 6
v -5 22 4
v -4 22 4
v -3 23 7
v 0 23 7
v -3 23 6
v -1 23 5
v 0 23 5
v -3 23 4
v -1 23 4
v -4 24 6
v -3 24 6
v -4 24 4
v -3 24 4
v -14 25 7
v -10 25 7
v -13 25 6
v -11 25 6
v -5 25 6
v -4 25 6
v -5 25 5
v -13 25 4
v -11 25 4
v -5 25 4
v -4 25 4
v -14 25 3
v -10 25 3
v -6 26 5
v -5 26 5
v -6 26 4
v -5 26 4
v -4 26 4
v -1 26 4
v -4 26 3
v -1 26 3
v -6 27 4
v -4 27 4
v -6 27 3
v -4 27 3
v -14 28 6
v -13 28 6
v -11 28 6
v -10 28 6
v -14 28 4
v -13 28 4
v -11 28 4
v -10 28 4
v -6 34 7
v 0 34 7
v -5 34 6
v 0 34 6
v -5 34 4
v -1 34 4
v -6 34 3
v -1 34 3
v -14 36 6
v -13 36 6
v -11 36 6
v -10 36 6
v -14 36 4
v -13 36 4
v -11 36 4
v -10 36 4
v -6 37 7
v 0 37 7
v -5 37 6
v 0 37 6
v -5 37 4
v -1 37 4
v -6 37 3
v -1 37 3
v -6 40 7
v 0 40 7
v -5 40 6
v 0 40 6
v -5 40 4
v -1 40 4
v -6 40 3
v -1 40 3
v -6 43 7
v 0 43 7
v -5 43 6
v 0 43 6
v -6 43 5
v -5 43 4
v -1 43 4
v -6 43 3
v -1 43 3
v -13 45 6
v -9 45 6
v -9 45 5
v -6 45 5
v -13 45 4
v -9 45 4
v -9 45 3
v -6 45 3
v -6 46 7
v 0 46 7
v -5 46 6
v 0 46 6
v -5 46 4
v -1 46 4
v -6 46 3
v -1 46 3
v 3 47 8
v 15 47 8
v 3 47 2
v 15 47 2
v -3 50 9
v 0 50 9
v -3 50 6
v 0 50 6
v -1 52 10
v 0 52 10
v -1 52 9
v 0 52 9
v -4 53 9
v -3 53 9
v -4 53 5
v -3 53 5
v 0 53 5
v -3 53 1
v 0 53 1
v -4 54 10
v -1 54 10
v -4 54 9
v -1 54 9
v -4 54 5
v -3 54 5
v -4 54 1
v -3 54 1
v -5 60 10
v 0 60 10
v -5 60 -0
v 0 60 -0
v 0 63 12
v 7 63 12
v 0 63 -2
v 7 63 -2

# faces
f 3/7/1 2/7/1 1/7/1
f 4/7/1 2/7/1 3/7/1
f 7/7/1 6/7/1 5/7/1
f 8/7/1 6/7/1 7/7/1
f 11/7/1 10/7/1 9/7/1
f 12/7/1 10/7/1 11/7/1
f 15/7/1 14/7/1 13/7/1
f 16/7/1 14/7/1 15/7/1
f 19/7/1 18/7/1 17/7/1
f 20/7/1 18/7/1 19/7/1
f 23/7/1 22/7/1 21/7/1
f 24/7/1 22/7/1 23/7/1
f 27/7/1 26/7/1 25/7/1
f 28/7/1 26/7/1 27/7/1
f 31/7/1 30/7/1 29/7/1
f 32/7/1 30/7/1 31/7/1
f 35/7/1 34/7/1 33/7/1
f 36/7/1 34/7/1 35/7/1
f 39/7/1 38/7/1 37/7/1
f 40/7/1 38/7/1 39/7/1
f 43/7/1 42/7/1 41/7/1
f 44/7/1 42/7/1 43/7/1
f 45/7/1 42/7/1 44/7/1
f 46/7/1 42/7/1 45/7/1
f 49/7/1 48/7/1 47/7/1
f 50/7/1 48/7/1 49/7/1
f 53/7/1 52/7/1 51/7/1
f 54/7/1 52/7/1 53/7/1
f 57/7/1 56/7/1 55/7/1
f 58/7/1 56/7/1 57/7/1
f 61/7/1 60/7/1 59/7/1
f 62/7/1 60/7/1 61/7/1
f 63/7/1 60/7/1 62/7/1
f 66/7/1 65/7/1 64/7/1
f 68/7/1 66/7/1 64/7/1
f 68/7/1 67/7/1 66/7/1
f 69/7/1 67/7/1 68/7/1
f 73/7/1 71/7/1 70/7/1
f 74/7/1 73/7/1 72/7/1
f 75/7/1 71/7/1 73/7/1
f 75/7/1 73/7/1 74/7/1
f 76/7/1 71/7/1 75/7/1
f 77/7/1 71/7/1 76/7/1
f 80/7/1 79/7/1 78/7/1
f 81/7/1 79/7/1 80/7/1
f 84/7/1 83/7/1 82/7/1
f 85/7/1 83/7/1 84/7/1
f 88/7/1 87/7/1 86/7/1
f 89/7/1 87/7/1 88/7/1
f 92/7/1 91/7/1 90/7/1
f 93/7/1 91/7/1 92/7/1
f 96/7/1 95/7/1 94/7/1
f 98/7/1 96/7/1 94/7/1
f 98/7/1 97/7/1 96/7/1
f 99/7/1 97/7/1 98/7/1
f 102/7/1 101/7/1 100/7/1
f 104/7/1 102/7/1 100/7/1
f 104/7/1 103/7/1 102/7/1
f 105/7/1 103/7/1 104/7/1
f 110/7/1 107/7/1 106/7/1
f 111/7/1 107/7/1 110/7/1
f 112/7/1 109/7/1 108/7/1
f 113/7/1 109/7/1 112/7/1
f 116/7/1 115/7/1 114/7/1
f 117/7/1 115/7/1 116/7/1
f 120/7/1 119/7/1 118/7/1
f 122/7/1 120/7/1 118/7/1
f 122/7/1 121/7/1 120/7/1
f 123/7/1 121/7/1 122/7/1
f 124/7/1 122/7/1 118/7/1
f 126/7/1 124/7/1 118/7/1
f 126/7/1 125/7/1 124/7/1
f 127/7/1 125/7/1 126/7/1
f 128/7/1 126/7/1 118/7/1
f 130/7/1 128/7/1 118/7/1
f 130/7/1 129/7/1 128/7/1
f 131/7/1 129/7/1 130/7/1
f 132/7/1 130/7/1 118/7/1
f 134/7/1 132/7/1 118/7/1
f 134/7/1 133/7/1 132/7/1
f 135/7/1 133/7/1 134/7/1
f 136/7/1 134/7/1 118/7/1
f 138/7/1 136/7/1 118/7/1
f 138/7/1 137/7/1 136/7/1
f 139/7/1 137/7/1 138/7/1
f 140/7/1 138/7/1 118/7/1
f 142/7/1 140/7/1 118/7/1
f 142/7/1 141/7/1 140/7/1
f 143/7/1 141/7/1 142/7/1
f 146/7/1 145/7/1 144/7/1
f 147/7/1 145/7/1 146/7/1
f 151/5/1 149/5/1 148/5/1
f 151/1/1 150/1/1 149/1/1
f 152/1/1 150/1/1 151/1/1
f 153/5/1 151/5/1 148/5/1
f 155/5/1 153/5/1 148/5/1
f 156/1/1 154/1/1 153/1/1
f 156/5/1 153/5/1 155/5/1
f 157/1/1 156/1/1 155/1/1
f 158/1/1 154/1/1 156/1/1
f 158/1/1 156/1/1 157/1/1
f 159/2/1 158/2/1 157/2/1
f 160/1/1 154/1/1 158/1/1
f 160/2/1 158/2/1 159/2/1
f 161/1/1 160/1/1 159/1/1
f 161/1/1 154/1/1 160/1/1
f 162/1/1 154/1/1 161/1/1
f 163/1/1 161/1/1 159/1/1
f 164/1/1 154/1/1 162/1/1
f 165/1/1 163/1/1 159/1/1
f 165/1/1 164/1/1 163/1/1
f 166/1/1 154/1/1 164/1/1
f 166/1/1 164/1/1 165/1/1
f 167/1/1 165/1/1 159/1/1
f 168/1/1 154/1/1 166/1/1
f 169/1/1 167/1/1 159/1/1
f 169/1/1 168/1/1 167/1/1
f 170/1/1 154/1/1 168/1/1
f 170/1/1 168/1/1 169/1/1
f 171/1/1 169/1/1 159/1/1
f 172/1/1 154/1/1 170/1/1
f 173/1/1 171/1/1 159/1/1
f 173/1/1 172/1/1 171/1/1
f 174/1/1 154/1/1 172/1/1
f 174/1/1 172/1/1 173/1/1
f 175/1/1 173/1/1 159/1/1
f 176/1/1 154/1/1 174/1/1
f 177/1/1 175/1/1 159/1/1
f 177/1/1 176/1/1 175/1/1
f 178/1/1 154/1/1 176/1/1
f 178/1/1 176/1/1 177/1/1
f 179/1/1 177/1/1 159/1/1
f 180/1/1 154/1/1 178/1/1
f 182/1/1 179/1/1 159/1/1
f 182/1/1 180/1/1 179/1/1
f 183/1/1 150/1/1 152/1/1
f 185/1/1 182/1/1 181/1/1
f 186/1/1 182/1/1 185/1/1
f 187/1/1 154/1/1 180/1/1
f 187/1/1 182/1/1 186/1/1
f 187/1/1 180/1/1 182/1/1
f 188/3/1 186/3/1 185/3/1
f 189/3/1 186/3/1 188/3/1
f 191/1/1 154/1/1 187/1/1
f 192/1/1 184/1/1 183/1/1
f 193/1/1 184/1/1 192/1/1
f 195/1/1 189/1/1 188/1/1
f 196/1/1 189/1/1 195/1/1
f 197/1/1 191/1/1 190/1/1
f 198/1/1 183/1/1 152/1/1
f 198/1/1 192/1/1 183/1/1
f 199/3/1 194/3/1 193/3/1
f 199/1/1 192/1/1 198/1/1
f 199/3/1 193/3/1 192/3/1
f 200/1/1 197/1/1 196/1/1
f 200/1/1 154/1/1 191/1/1
f 200/1/1 191/1/1 197/1/1
f 202/2/1 196/2/1 195/2/1
f 203/1/1 201/1/1 200/1/1
f 203/2/1 196/2/1 202/2/1
f 203/1/1 200/1/1 196/1/1
f 204/1/1 201/1/1 203/1/1
f 205/1/1 201/1/1 204/1/1
f 206/1/1 201/1/1 205/1/1
f 208/1/1 203/1/1 202/1/1
f 209/1/1 203/1/1 208/1/1
f 210/3/1 194/3/1 199/3/1
f 211/3/1 209/3/1 208/3/1
f 211/1/1 210/1/1 209/1/1
f 211/3/1 208/3/1 207/3/1
f 212/3/1 194/3/1 210/3/1
f 212/1/1 210/1/1 211/1/1
f 213/3/1 211/3/1 207/3/1
f 213/3/1 212/3/1 211/3/1
f 214/3/1 194/3/1 212/3/1
f 214/3/1 212/3/1 213/3/1
f 217/1/1 216/1/1 215/1/1
f 218/1/1 216/1/1 217/1/1
f 219/1/1 216/1/1 218/1/1
f 220/1/1 216/1/1 219/1/1
f 221/1/1 216/1/1 220/1/1
f 224/3/1 223/3/1 222/3/1
f 225/3/1 223/3/1 224/3/1
f 228/1/1 227/1/1 226/1/1
f 229/1/1 227/1/1 228/1/1
f 230/7/2 231/7/2 232/7/2
f 232/7/2 231/7/2 233/7/2
f 234/7/2 235/7/2 236/7/2
f 236/7/2 235/7/2 237/7/2
f 238/7/2 239/7/2 240/7/2
f 240/7/2 239/7/2 241/7/2
f 242/7/2 243/7/2 244/7/2
f 244/7/2 243/7/2 245/7/2
f 246/7/2 247/7/2 248/7/2
f 248/7/2 247/7/2 249/7/2
f 250/7/2 251/7/2 252/7/2
f 252/7/2 251/7/2 253/7/2
f 254/7/2 255/7/2 256/7/2
f 256/7/2 255/7/2 257/7/2
f 258/7/2 259/7/2 260/7/2
f 260/7/2 259/7/2 261/7/2
f 262/7/2 263/7/2 264/7/2
f 264/7/2 263/7/2 265/7/2
f 266/7/2 267/7/2 268/7/2
f 268/7/2 267/7/2 269/7/2
f 270/7/2 271/7/2 272/7/2
f 272/7/2 271/7/2 273/7/2
f 274/7/2 275/7/2 276/7/2
f 276/7/2 275/7/2 277/7/2
f 278/7/2 279/7/2 280/7/2
f 280/7/2 279/7/2 281/7/2
f 282/7/2 283/7/2 284/7/2
f 284/7/2 283/7/2 285/7/2
f 286/7/2 287/7/2 288/7/2
f 288/7/2 287/7/2 289/7/2
f 290/7/2 291/7/2 292/7/2
f 292/7/2 291/7/2 293/7/2
f 294/7/2 295/7/2 297/7/2
f 297/7/2 295/7/2 298/7/2
f 297/7/2 298/7/2 300/7/2
f 298/7/2 299/7/2 300/7/2
f 296/7/2 297/7/2 300/7/2
f 300/7/2 299/7/2 301/7/2
f 301/7/2 299/7/2 302/7/2
f 302/7/2 299/7/2 303/7/2
f 304/7/2 305/7/2 307/7/2
f 306/7/2 307/7/2 308/7/2
f 307/7/2 305/7/2 309/7/2
f 308/7/2 307/7/2 309/7/2
f 309/7/2 305/7/2 310/7/2
f 310/7/2 305/7/2 311/7/2
f 312/7/2 313/7/2 314/7/2
f 314/7/2 313/7/2 315/7/2
f 316/7/2 317/7/2 318/7/2
f 318/7/2 317/7/2 319/7/2
f 320/7/2 321/7/2 322/7/2
f 322/7/2 321/7/2 323/7/2
f 324/7/2 325/7/2 326/7/2
f 326/7/2 327/7/2 328/7/2
f 324/7/2 326/7/2 329/7/2
f 326/7/2 328/7/2 329/7/2
f 329/7/2 328/7/2 330/7/2
f 330/7/2 331/7/2 332/7/2
f 332/7/2 331/7/2 333/7/2
f 334/7/2 335/7/2 336/7/2
f 336/7/2 335/7/2 337/7/2
f 338/7/2 339/7/2 340/7/2
f 340/7/2 339/7/2 341/7/2
f 342/7/2 343/7/2 344/7/2
f 344/7/2 343/7/2 345/7/2
f 346/7/2 347/7/2 348/7/2
f 348/7/2 347/7/2 349/7/2
f 350/1/2 351/1/2 352/1/2
f 352/1/2 351/1/2 353/1/2
f 354/1/2 355/1/2 356/1/2
f 356/1/2 355/1/2 357/1/2
f 354/1/2 356/1/2 358/1/2
f 358/1/2 356/1/2 359/1/2
f 354/1/2 358/1/2 360/1/2
f 360/1/2 358/1/2 361/1/2
f 354/1/2 360/1/2 362/1/2
f 362/1/2 360/1/2 363/1/2
f 354/1/2 362/1/2 364/1/2
f 364/1/2 362/1/2 365/1/2
f 366/1/2 367/1/2 368/1/2
f 368/1/2 367/1/2 369/1/2
f 369/1/2 367/1/2 370/1/2
f 370/1/2 367/1/2 371/1/2
f 372/3/2 373/3/2 375/3/2
f 374/3/2 375/3/2 377/3/2
f 376/3/2 377/3/2 379/3/2
f 378/3/2 379/3/2 381/3/2
f 380/3/2 381/3/2 382/3/2
f 375/3/2 373/3/2 383/3/2
f 382/3/2 381/3/2 383/3/2
f 377/3/2 375/3/2 383/3/2
f 381/3/2 379/3/2 383/3/2
f 379/3/2 377/3/2 383/3/2
f 384/1/2 385/1/2 386/1/2
f 386/1/2 385/1/2 387/1/2
f 391/3/3 389/3/3 388/3/3
f 392/3/3 391/3/3 390/3/3
f 393/3/3 389/3/3 391/3/3
f 393/3/3 391/3/3 392/3/3
f 402/1/3 397/1/3 396/1/3
f 402/2/3 398/2/3 397/2/3
f 403/1/3 399/1/3 398/1/3
f 403/2/3 398/2/3 402/2/3
f 404/1/3 399/1/3 403/1/3
f 405/1/3 399/1/3 404/1/3
f 406/3/3 396/3/3 395/3/3
f 406/1/3 402/1/3 396/1/3
f 406/1/3 403/1/3 402/1/3
f 407/1/3 403/1/3 406/1/3
f 408/1/3 399/1/3 405/1/3
f 409/1/3 399/1/3 408/1/3
f 410/1/3 395/1/3 394/1/3
f 410/3/3 406/3/3 395/3/3
f 410/3/3 407/3/3 406/3/3
f 411/3/3 407/3/3 410/3/3
f 412/1/3 403/1/3 407/1/3
f 412/4/3 404/4/3 403/4/3
f 413/6/3 405/6/3 404/6/3
f 413/4/3 404/4/3 412/4/3
f 414/3/3 407/3/3 411/3/3
f 414/1/3 411/1/3 410/1/3
f 415/1/3 412/1/3 407/1/3
f 415/3/3 407/3/3 414/3/3
f 416/6/3 413/6/3 412/6/3
f 416/1/3 412/1/3 415/1/3
f 416/1/3 415/1/3 414/1/3
f 417/6/3 405/6/3 413/6/3
f 417/6/3 413/6/3 416/6/3
f 417/1/3 408/1/3 405/1/3
f 418/1/3 416/1/3 414/1/3
f 418/1/3 414/1/3 410/1/3
f 418/1/3 417/1/3 416/1/3
f 418/1/3 410/1/3 394/1/3
f 419/1/3 408/1/3 417/1/3
f 419/1/3 417/1/3 418/1/3
f 420/1/3 401/1/3 400/1/3
f 421/1/3 401/1/3 420/1/3
f 427/7/3 425/7/3 424/7/3
f 428/7/3 425/7/3 427/7/3
f 429/7/3 425/7/3 428/7/3
f 430/7/3 423/7/3 422/7/3
f 431/7/3 423/7/3 430/7/3
f 432/7/3 427/7/3 426/7/3
f 432/7/3 428/7/3 427/7/3
f 433/7/3 428/7/3 432/7/3
f 434/7/3 425/7/3 429/7/3
f 435/7/3 432/7/3 426/7/3
f 436/7/3 432/7/3 435/7/3
f 437/7/3 432/7/3 436/7/3
f 438/7/3 434/7/3 433/7/3
f 439/7/3 425/7/3 434/7/3
f 439/7/3 434/7/3 438/7/3
f 442/7/3 441/7/3 440/7/3
f 443/7/3 441/7/3 442/7/3
f 450/5/3 445/5/3 444/5/3
f 451/5/3 445/5/3 450/5/3
f 452/1/3 446/1/3 445/1/3
f 452/5/3 445/5/3 451/5/3
f 453/1/3 446/1/3 452/1/3
f 454/2/3 447/2/3 446/2/3
f 454/1/3 446/1/3 453/1/3
f 455/1/3 448/1/3 447/1/3
f 455/2/3 447/2/3 454/2/3
f 456/5/3 451/5/3 450/5/3
f 456/1/3 450/1/3 449/1/3
f 457/5/3 451/5/3 456/5/3
f 458/5/3 451/5/3 457/5/3
f 459/1/3 452/1/3 451/1/3
f 459/5/3 451/5/3 458/5/3
f 460/5/3 453/5/3 452/5/3
f 460/1/3 452/1/3 459/1/3
f 461/1/3 454/1/3 453/1/3
f 461/5/3 453/5/3 460/5/3
f 461/1/3 455/1/3 454/1/3
f 462/1/3 457/1/3 456/1/3
f 462/5/3 458/5/3 457/5/3
f 463/1/3 460/1/3 459/1/3
f 463/5/3 458/5/3 462/5/3
f 463/1/3 459/1/3 458/1/3
f 463/1/3 461/1/3 460/1/3
f 464/1/3 448/1/3 455/1/3
f 464/1/3 461/1/3 463/1/3
f 464/1/3 455/1/3 461/1/3
f 465/1/3 448/1/3 464/1/3
f 466/1/3 448/1/3 465/1/3
f 467/1/3 448/1/3 466/1/3
f 468/1/3 463/1/3 462/1/3
f 468/1/3 464/1/3 463/1/3
f 468/2/3 465/2/3 464/2/3
f 469/1/3 466/1/3 465/1/3
f 469/2/3 465/2/3 468/2/3
f 472/1/3 462/1/3 456/1/3
f 472/1/3 456/1/3 449/1/3
f 472/1/3 469/1/3 468/1/3
f 472/1/3 468/1/3 462/1/3
f 473/1/3 466/1/3 469/1/3
f 473/1/3 469/1/3 472/1/3
f 474/3/3 471/3/3 470/3/3
f 475/3/3 471/3/3 474/3/3
f 477/1/3 466/1/3 473/1/3
f 478/1/3 477/1/3 476/1/3
f 479/1/3 466/1/3 477/1/3
f 479/1/3 477/1/3 478/1/3
f 482/7/3 481/7/3 480/7/3
f 483/7/3 481/7/3 482/7/3
f 496/7/3 495/7/3 494/7/3
f 497/7/3 495/7/3 496/7/3
f 498/7/3 485/7/3 484/7/3
f 499/7/3 485/7/3 498/7/3
f 500/7/3 487/7/3 486/7/3
f 501/7/3 487/7/3 500/7/3
f 502/7/3 489/7/3 488/7/3
f 503/7/3 489/7/3 502/7/3
f 504/7/3 491/7/3 490/7/3
f 505/7/3 491/7/3 504/7/3
f 506/7/3 493/7/3 492/7/3
f 507/7/3 493/7/3 506/7/3
f 513/7/3 509/7/3 508/7/3
f 514/7/3 509/7/3 513/7/3
f 515/7/3 511/7/3 510/7/3
f 516/7/3 511/7/3 515/7/3
f 518/7/3 514/7/3 513/7/3
f 518/7/3 517/7/3 516/7/3
f 518/7/3 516/7/3 515/7/3
f 518/7/3 515/7/3 514/7/3
f 518/7/3 513/7/3 512/7/3
f 519/7/3 517/7/3 518/7/3
f 520/7/3 517/7/3 519/7/3
f 521/7/3 517/7/3 520/7/3
f 522/7/3 517/7/3 521/7/3
f 523/7/3 517/7/3 522/7/3
f 524/7/3 520/7/3 519/7/3
f 525/7/3 520/7/3 524/7/3
f 526/7/3 522/7/3 521/7/3
f 527/7/3 522/7/3 526/7/3
f 528/7/3 517/7/3 523/7/3
f 529/7/3 517/7/3 528/7/3
f 537/7/3 531/7/3 530/7/3
f 538/7/3 531/7/3 537/7/3
f 539/7/3 533/7/3 532/7/3
f 540/7/3 533/7/3 539/7/3
f 544/7/3 538/7/3 537/7/3
f 544/7/3 537/7/3 536/7/3
f 544/7/3 541/7/3 540/7/3
f 544/7/3 540/7/3 539/7/3
f 544/7/3 539/7/3 538/7/3
f 545/7/3 543/7/3 542/7/3
f 546/7/3 543/7/3 545/7/3
f 547/7/3 535/7/3 534/7/3
f 548/7/3 535/7/3 547/7/3
f 549/7/3 544/7/3 536/7/3
f 549/7/3 545/7/3 544/7/3
f 550/7/3 545/7/3 549/7/3
f 551/7/3 545/7/3 550/7/3
f 552/7/3 545/7/3 551/7/3
f 553/7/3 545/7/3 552/7/3
f 554/7/3 545/7/3 553/7/3
f 555/7/3 545/7/3 554/7/3
f 556/7/3 545/7/3 555/7/3
f 557/7/3 551/7/3 550/7/3
f 558/7/3 551/7/3 557/7/3
f 559/7/3 553/7/3 552/7/3
f 560/7/3 553/7/3 559/7/3
f 565/7/3 562/7/3 561/7/3
f 566/7/3 562/7/3 565/7/3
f 567/7/3 562/7/3 566/7/3
f 568/7/3 564/7/3 563/7/3
f 569/7/3 564/7/3 568/7/3
f 570/7/3 564/7/3 569/7/3
f 574/7/3 572/7/3 571/7/3
f 575/7/3 572/7/3 574/7/3
f 577/7/3 574/7/3 573/7/3
f 578/7/3 577/7/3 576/7/3
f 579/7/3 574/7/3 577/7/3
f 579/7/3 577/7/3 578/7/3
f 582/3/3 581/3/3 580/3/3
f 583/3/3 581/3/3 582/3/3
f 587/7/3 585/7/3 584/7/3
f 599/7/3 587/7/3 586/7/3
f 600/7/3 585/7/3 587/7/3
f 600/7/3 587/7/3 599/7/3
f 601/7/3 585/7/3 600/7/3
f 603/7/3 599/7/3 598/7/3
f 603/7/3 600/7/3 599/7/3
f 604/7/3 603/7/3 602/7/3
f 605/7/3 600/7/3 603/7/3
f 605/7/3 603/7/3 604/7/3
f 606/7/3 589/7/3 588/7/3
f 607/7/3 589/7/3 606/7/3
f 608/7/3 591/7/3 590/7/3
f 609/7/3 591/7/3 608/7/3
f 610/7/3 593/7/3 592/7/3
f 611/7/3 593/7/3 610/7/3
f 612/7/3 595/7/3 594/7/3
f 613/7/3 595/7/3 612/7/3
f 614/7/3 597/7/3 596/7/3
f 615/7/3 597/7/3 614/7/3
f 618/3/3 617/3/3 616/3/3
f 619/3/3 617/3/3 618/3/3
f 623/7/3 621/7/3 620/7/3
f 624/7/3 623/7/3 622/7/3
f 625/7/3 621/7/3 623/7/3
f 625/7/3 623/7/3 624/7/3
f 628/3/3 627/3/3 626/3/3
f 629/3/3 627/3/3 628/3/3
f 630/7/4 631/7/4 635/7/4
f 634/7/4 635/7/4 636/7/4
f 635/7/4 631/7/4 637/7/4
f 636/7/4 635/7/4 637/7/4
f 632/7/4 633/7/4 638/7/4
f 634/7/4 636/7/4 639/7/4
f 639/7/4 636/7/4 640/7/4
f 637/7/4 638/7/4 641/7/4
f 638/7/4 633/7/4 642/7/4
f 641/7/4 638/7/4 642/7/4
f 643/7/4 644/7/4 645/7/4
f 643/7/4 645/7/4 646/7/4
f 643/7/4 646/7/4 647/7/4
f 647/7/4 646/7/4 648/7/4
f 659/7/4 660/7/4 661/7/4
f 661/7/4 660/7/4 662/7/4
f 649/7/4 650/7/4 663/7/4
f 663/7/4 650/7/4 664/7/4
f 651/7/4 652/7/4 665/7/4
f 665/7/4 652/7/4 666/7/4
f 653/7/4 654/7/4 667/7/4
f 667/7/4 654/7/4 668/7/4
f 655/7/4 656/7/4 669/7/4
f 669/7/4 656/7/4 670/7/4
f 657/7/4 658/7/4 671/7/4
f 671/7/4 658/7/4 672/7/4
f 659/7/4 661/7/4 673/7/4
f 673/7/4 661/7/4 674/7/4
f 675/7/4 676/7/4 677/7/4
f 677/7/4 676/7/4 678/7/4
f 678/7/4 676/7/4 679/7/4
f 680/7/4 681/7/4 685/7/4
f 685/7/4 681/7/4 686/7/4
f 682/7/4 683/7/4 687/7/4
f 687/7/4 683/7/4 688/7/4
f 685/7/4 686/7/4 690/7/4
f 688/7/4 689/7/4 690/7/4
f 687/7/4 688/7/4 690/7/4
f 686/7/4 687/7/4 690/7/4
f 684/7/4 685/7/4 690/7/4
f 690/7/4 689/7/4 691/7/4
f 691/7/4 689/7/4 692/7/4
f 692/7/4 689/7/4 693/7/4
f 693/7/4 689/7/4 694/7/4
f 694/7/4 689/7/4 695/7/4
f 691/7/4 692/7/4 696/7/4
f 696/7/4 692/7/4 697/7/4
f 693/7/4 694/7/4 698/7/4
f 698/7/4 694/7/4 699/7/4
f 695/7/4 689/7/4 700/7/4
f 700/7/4 689/7/4 701/7/4
f 702/7/4 703/7/4 707/7/4
f 707/7/4 703/7/4 708/7/4
f 704/7/4 705/7/4 709/7/4
f 709/7/4 705/7/4 710/7/4
f 707/7/4 708/7/4 712/7/4
f 710/7/4 711/7/4 712/7/4
f 709/7/4 710/7/4 712/7/4
f 708/7/4 709/7/4 712/7/4
f 706/7/4 707/7/4 712/7/4
f 706/7/4 712/7/4 714/7/4
f 712/7/4 713/7/4 714/7/4
f 714/7/4 713/7/4 715/7/4
f 715/7/4 713/7/4 716/7/4
f 716/7/4 713/7/4 717/7/4
f 717/7/4 713/7/4 718/7/4
f 718/7/4 713/7/4 719/7/4
f 719/7/4 713/7/4 720/7/4
f 715/7/4 716/7/4 721/7/4
f 721/7/4 716/7/4 722/7/4
f 717/7/4 718/7/4 723/7/4
f 723/7/4 718/7/4 724/7/4
f 725/7/4 726/7/4 727/7/4
f 727/7/4 726/7/4 728/7/4
f 729/7/4 730/7/4 740/7/4
f 740/7/4 730/7/4 741/7/4
f 741/7/4 730/7/4 742/7/4
f 731/7/4 732/7/4 745/7/4
f 745/7/4 732/7/4 746/7/4
f 746/7/4 732/7/4 747/7/4
f 744/7/4 745/7/4 749/7/4
f 745/7/4 746/7/4 749/7/4
f 749/7/4 746/7/4 750/7/4
f 748/7/4 749/7/4 750/7/4
f 733/7/4 734/7/4 751/7/4
f 751/7/4 734/7/4 752/7/4
f 735/7/4 736/7/4 753/7/4
f 753/7/4 736/7/4 754/7/4
f 737/7/4 738/7/4 755/7/4
f 755/7/4 738/7/4 756/7/4
f 739/7/4 740/7/4 757/7/4
f 757/7/4 740/7/4 758/7/4
f 741/7/4 742/7/4 759/7/4
f 742/7/4 743/7/4 759/7/4
f 759/7/4 743/7/4 760/7/4
f 753/7/4 754/7/4 762/7/4
f 760/7/4 761/7/4 762/7/4
f 759/7/4 760/7/4 762/7/4
f 758/7/4 759/7/4 762/7/4
f 757/7/4 758/7/4 762/7/4
f 748/7/4 750/7/4 762/7/4
f 754/7/4 755/7/4 762/7/4
f 751/7/4 752/7/4 762/7/4
f 752/7/4 753/7/4 762/7/4
f 755/7/4 756/7/4 762/7/4
f 750/7/4 751/7/4 762/7/4
f 756/7/4 757/7/4 762/7/4
f 762/7/4 761/7/4 763/7/4
f 764/1/4 765/1/4 767/1/4
f 767/1/4 765/1/4 768/1/4
f 766/1/4 767/1/4 768/1/4
f 768/1/4 765/1/4 769/1/4
f 766/1/4 768/1/4 770/1/4
f 770/1/4 768/1/4 771/1/4
f 771/1/4 768/1/4 773/1/4
f 772/1/4 773/1/4 774/1/4
f 773/1/4 768/1/4 775/1/4
f 774/1/4 773/1/4 775/1/4
f 776/7/4 777/7/4 779/7/4
f 778/7/4 779/7/4 780/7/4
f 779/7/4 777/7/4 781/7/4
f 780/7/4 779/7/4 781/7/4
f 782/1/4 783/1/4 784/1/4
f 784/1/4 783/1/4 785/1/4
f 786/3/4 787/3/4 788/3/4
f 788/3/4 787/3/4 789/3/4
f 794/7/5 793/7/5 792/7/5
f 795/7/5 793/7/5 794/7/5
f 798/7/5 797/7/5 796/7/5
f 799/7/5 797/7/5 798/7/5
f 800/1/5 791/1/5 790/1/5
f 801/1/5 791/1/5 800/1/5
f 804/7/5 803/7/5 802/7/5
f 805/7/5 803/7/5 804/7/5
f 810/7/5 807/7/5 806/7/5
f 811/7/5 807/7/5 810/7/5
f 812/7/5 809/7/5 808/7/5
f 813/7/5 809/7/5 812/7/5
f 818/7/5 815/7/5 814/7/5
f 819/7/5 815/7/5 818/7/5
f 820/7/5 817/7/5 816/7/5
f 821/7/5 817/7/5 820/7/5
f 824/5/5 823/5/5 822/5/5
f 825/5/5 823/5/5 824/5/5
f 826/1/5 825/1/5 824/1/5
f 827/1/5 825/1/5 826/1/5
f 834/7/5 833/7/5 832/7/5
f 835/7/5 833/7/5 834/7/5
f 836/7/5 831/7/5 830/7/5
f 837/7/5 831/7/5 836/7/5
f 838/7/5 833/7/5 835/7/5
f 839/7/5 833/7/5 838/7/5
f 840/1/5 829/1/5 828/1/5
f 841/1/5 829/1/5 840/1/5
f 844/7/5 843/7/5 842/7/5
f 845/7/5 843/7/5 844/7/5
f 849/7/5 847/7/5 846/7/5
f 850/7/5 849/7/5 848/7/5
f 851/7/5 847/7/5 849/7/5
f 851/7/5 849/7/5 850/7/5
f 856/7/5 853/7/5 852/7/5
f 857/7/5 853/7/5 856/7/5
f 858/7/5 855/7/5 854/7/5
f 859/7/5 855/7/5 858/7/5
f 862/7/5 861/7/5 860/7/5
f 863/7/5 861/7/5 862/7/5
f 864/7/5 862/7/5 860/7/5
f 866/7/5 864/7/5 860/7/5
f 866/7/5 865/7/5 864/7/5
f 867/7/5 865/7/5 866/7/5
f 872/7/5 869/7/5 868/7/5
f 873/7/5 869/7/5 872/7/5
f 874/7/5 871/7/5 870/7/5
f 875/7/5 871/7/5 874/7/5
f 878/7/5 877/7/5 876/7/5
f 879/7/5 877/7/5 878/7/5
f 880/7/5 878/7/5 876/7/5
f 882/7/5 880/7/5 876/7/5
f 882/7/5 881/7/5 880/7/5
f 883/7/5 881/7/5 882/7/5
f 886/7/5 885/7/5 884/7/5
f 887/7/5 885/7/5 886/7/5
f 888/7/5 886/7/5 884/7/5
f 890/7/5 888/7/5 884/7/5
f 890/7/5 889/7/5 888/7/5
f 891/7/5 889/7/5 890/7/5
f 896/7/5 895/7/5 894/7/5
f 897/7/5 895/7/5 896/7/5
f 898/7/5 896/7/5 894/7/5
f 900/7/5 898/7/5 894/7/5
f 900/7/5 899/7/5 898/7/5
f 901/7/5 899/7/5 900/7/5
f 902/1/5 893/1/5 892/1/5
f 903/1/5 893/1/5 902/1/5
f 906/7/5 905/7/5 904/7/5
f 908/7/5 906/7/5 904/7/5
f 908/7/5 907/7/5 906/7/5
f 909/7/5 907/7/5 908/7/5
f 910/7/5 907/7/5 909/7/5
f 911/7/5 907/7/5 910/7/5
f 914/7/5 913/7/5 912/7/5
f 915/7/5 913/7/5 914/7/5
f 916/7/5 914/7/5 912/7/5
f 917/7/5 914/7/5 916/7/5
f 919/7/5 917/7/5 916/7/5
f 919/7/5 918/7/5 917/7/5
f 920/7/5 918/7/5 919/7/5
f 923/1/5 922/1/5 921/1/5
f 924/1/5 922/1/5 923/1/5
f 926/1/5 922/1/5 924/1/5
f 927/1/5 926/1/5 925/1/5
f 928/1/5 922/1/5 926/1/5
f 928/1/5 926/1/5 927/1/5
f 931/7/5 930/7/5 929/7/5
f 932/7/5 930/7/5 931/7/5
f 936/3/5 934/3/5 933/3/5
f 937/3/5 936/3/5 935/3/5
f 938/3/5 934/3/5 936/3/5
f 938/3/5 936/3/5 937/3/5
f 941/7/5 940/7/5 939/7/5
f 942/7/5 940/7/5 941/7/5
f 945/7/5 944/7/5 943/7/5
f 949/3/5 948/3/5 947/3/5
f 950/3/5 948/3/5 949/3/5
f 951/7/5 945/7/5 943/7/5
f 951/7/5 946/7/5 945/7/5
f 952/7/5 946/7/5 951/7/5
f 955/7/5 954/7/5 953/7/5
f 957/7/5 955/7/5 953/7/5
f 957/7/5 956/7/5 955/7/5
f 958/7/5 956/7/5 957/7/5
f 961/7/5 960/7/5 959/7/5
f 962/7/5 960/7/5 961/7/5
f 965/3/5 964/3/5 963/3/5
f 966/3/5 964/3/5 965/3/5
f 969/3/5 968/3/5 967/3/5
f 970/3/5 968/3/5 969/3/5
f 973/7/5 972/7/5 971/7/5
f 974/7/5 972/7/5 973/7/5
f 977/3/5 976/3/5 975/3/5
f 978/3/5 976/3/5 977/3/5
f 981/3/5 976/3/5 978/3/5
f 982/3/5 976/3/5 981/3/5
f 983/7/5 980/7/5 979/7/5
f 984/7/5 980/7/5 983/7/5
f 987/3/5 986/3/5 985/3/5
f 988/3/5 986/3/5 987/3/5
f 989/7/6 990/7/6 991/7/6
f 991/7/6 990/7/6 992/7/6
f 992/7/6 990/7/6 993/7/6
f 993/7/6 990/7/6 994/7/6
f 995/7/6 996/7/6 997/7/6
f 997/7/6 996/7/6 998/7/6
f 999/1/6 1000/1/6 1001/1/6
f 1001/1/6 1000/1/6 1002/1/6
f 1003/7/6 1004/7/6 1007/7/6
f 1007/7/6 1004/7/6 1008/7/6
f 1005/7/6 1006/7/6 1009/7/6
f 1009/7/6 1006/7/6 1010/7/6
f 1011/7/6 1012/7/6 1015/7/6
f 1015/7/6 1012/7/6 1016/7/6
f 1013/7/6 1014/7/6 1017/7/6
f 1017/7/6 1014/7/6 1018/7/6
f 1019/7/6 1020/7/6 1021/7/6
f 1021/7/6 1020/7/6 1022/7/6
f 1023/7/6 1024/7/6 1025/7/6
f 1025/7/6 1024/7/6 1026/7/6
f 1026/7/6 1024/7/6 1027/7/6
f 1025/7/6 1026/7/6 1028/7/6
f 1028/7/6 1026/7/6 1029/7/6
f 1030/7/6 1031/7/6 1032/7/6
f 1032/7/6 1031/7/6 1033/7/6
f 1034/7/6 1035/7/6 1036/7/6
f 1036/7/6 1035/7/6 1037/7/6
f 1038/7/6 1039/7/6 1040/7/6
f 1034/7/6 1036/7/6 1041/7/6
f 1037/7/6 1035/7/6 1042/7/6
f 1040/7/6 1039/7/6 1043/7/6
f 1043/7/6 1039/7/6 1044/7/6
f 1041/7/6 1042/7/6 1045/7/6
f 1034/7/6 1041/7/6 1045/7/6
f 1042/7/6 1035/7/6 1046/7/6
f 1045/7/6 1042/7/6 1046/7/6
f 1047/7/6 1048/7/6 1049/7/6
f 1049/7/6 1048/7/6 1050/7/6
f 1051/7/6 1052/7/6 1053/7/6
f 1053/7/6 1052/7/6 1054/7/6
f 1055/7/6 1056/7/6 1057/7/6
f 1057/7/6 1056/7/6 1058/7/6
f 1059/7/6 1060/7/6 1063/7/6
f 1063/7/6 1060/7/6 1064/7/6
f 1061/7/6 1062/7/6 1065/7/6
f 1065/7/6 1062/7/6 1066/7/6
f 1067/7/6 1068/7/6 1069/7/6
f 1069/7/6 1068/7/6 1070/7/6
f 1067/7/6 1069/7/6 1071/7/6
f 1067/7/6 1071/7/6 1073/7/6
f 1071/7/6 1072/7/6 1073/7/6
f 1073/7/6 1072/7/6 1074/7/6
f 1075/7/6 1076/7/6 1079/7/6
f 1079/7/6 1076/7/6 1080/7/6
f 1077/7/6 1078/7/6 1081/7/6
f 1081/7/6 1078/7/6 1082/7/6
f 1083/7/6 1084/7/6 1085/7/6
f 1085/7/6 1084/7/6 1086/7/6
f 1083/7/6 1085/7/6 1087/7/6
f 1083/7/6 1087/7/6 1089/7/6
f 1087/7/6 1088/7/6 1089/7/6
f 1089/7/6 1088/7/6 1090/7/6
f 1091/7/6 1092/7/6 1093/7/6
f 1093/7/6 1092/7/6 1094/7/6
f 1091/7/6 1093/7/6 1095/7/6
f 1091/7/6 1095/7/6 1097/7/6
f 1095/7/6 1096/7/6 1097/7/6
f 1097/7/6 1096/7/6 1098/7/6
f 1099/7/6 1100/7/6 1101/7/6
f 1101/7/6 1100/7/6 1102/7/6
f 1099/7/6 1101/7/6 1103/7/6
f 1103/7/6 1101/7/6 1104/7/6
f 1103/7/6 1104/7/6 1106/7/6
f 1104/7/6 1105/7/6 1106/7/6
f 1106/7/6 1105/7/6 1107/7/6
f 1108/7/6 1109/7/6 1110/7/6
f 1108/7/6 1110/7/6 1112/7/6
f 1110/7/6 1111/7/6 1112/7/6
f 1112/7/6 1111/7/6 1113/7/6
f 1113/7/6 1111/7/6 1114/7/6
f 1114/7/6 1111/7/6 1115/7/6
f 1116/7/6 1117/7/6 1118/7/6
f 1118/7/6 1117/7/6 1119/7/6
f 1116/7/6 1118/7/6 1120/7/6
f 1116/7/6 1120/7/6 1122/7/6
f 1120/7/6 1121/7/6 1122/7/6
f 1122/7/6 1121/7/6 1123/7/6
f 1124/1/6 1125/1/6 1126/1/6
f 1126/1/6 1125/1/6 1127/1/6
f 1128/7/6 1129/7/6 1130/7/6
f 1130/7/6 1129/7/6 1131/7/6
f 1132/7/6 1133/7/6 1134/7/6
f 1134/7/6 1133/7/6 1135/7/6
f 1136/7/6 1137/7/6 1138/7/6
f 1138/7/6 1137/7/6 1139/7/6
f 1139/7/6 1140/7/6 1141/7/6
f 1141/7/6 1140/7/6 1142/7/6
f 1143/7/6 1144/7/6 1145/7/6
f 1145/7/6 1144/7/6 1146/7/6
f 1147/7/6 1148/7/6 1149/7/6
f 1149/7/6 1148/7/6 1150/7/6
f 1151/7/6 1152/7/6 1153/7/6
f 1153/7/6 1152/7/6 1154/7/6
f 1155/3/6 1156/3/6 1157/3/6
f 1157/3/6 1156/3/6 1158/3/6
